<?xml version="1.0"?>
<font>
  <info face="Lora" size="-13" bold="0" italic="0" charset="" unicode="1" stretchH="100" smooth="1" aa="1" padding="2,2,2,2" spacing="1,1" outline="0"/>
  <common lineHeight="20" base="16" scaleW="190" scaleH="210" pages="1" packed="0" alphaChnl="0" redChnl="4" greenChnl="4" blueChnl="4"/>
  <pages>
    <page id="0" file="bold13_0.png" />
  </pages>
  <chars count="198">
    <char id="32" x="50" y="202" width="7" height="5" xoffset="-3" yoffset="17" xadvance="3" page="0" chnl="15" />
    <char id="33" x="24" y="152" width="7" height="13" xoffset="-2" yoffset="5" xadvance="3" page="0" chnl="15" />
    <char id="34" x="179" y="184" width="8" height="7" xoffset="-2" yoffset="5" xadvance="4" page="0" chnl="15" />
    <char id="35" x="34" y="82" width="16" height="13" xoffset="-2" yoffset="5" xadvance="11" page="0" chnl="15" />
    <char id="36" x="149" y="0" width="12" height="17" xoffset="-2" yoffset="3" xadvance="8" page="0" chnl="15" />
    <char id="37" x="17" y="82" width="16" height="13" xoffset="-2" yoffset="5" xadvance="12" page="0" chnl="15" />
    <char id="38" x="165" y="106" width="14" height="13" xoffset="-2" yoffset="5" xadvance="9" page="0" chnl="15" />
    <char id="39" x="9" y="202" width="7" height="7" xoffset="-2" yoffset="5" xadvance="2" page="0" chnl="15" />
    <char id="40" x="75" y="18" width="8" height="17" xoffset="-2" yoffset="4" xadvance="4" page="0" chnl="15" />
    <char id="41" x="65" y="18" width="9" height="17" xoffset="-3" yoffset="4" xadvance="4" page="0" chnl="15" />
    <char id="42" x="93" y="188" width="11" height="10" xoffset="-2" yoffset="5" xadvance="7" page="0" chnl="15" />
    <char id="43" x="117" y="187" width="11" height="9" xoffset="-2" yoffset="7" xadvance="7" page="0" chnl="15" />
    <char id="44" x="182" y="160" width="7" height="8" xoffset="-2" yoffset="12" xadvance="3" page="0" chnl="15" />
    <char id="45" x="39" y="202" width="10" height="5" xoffset="-2" yoffset="10" xadvance="6" page="0" chnl="15" />
    <char id="46" x="17" y="202" width="7" height="6" xoffset="-2" yoffset="12" xadvance="3" page="0" chnl="15" />
    <char id="47" x="61" y="0" width="14" height="17" xoffset="-2" yoffset="4" xadvance="9" page="0" chnl="15" />
    <char id="48" x="0" y="138" width="12" height="13" xoffset="-2" yoffset="5" xadvance="8" page="0" chnl="15" />
    <char id="49" x="0" y="152" width="11" height="13" xoffset="-3" yoffset="5" xadvance="5" page="0" chnl="15" />
    <char id="50" x="177" y="134" width="11" height="13" xoffset="-2" yoffset="5" xadvance="7" page="0" chnl="15" />
    <char id="51" x="165" y="134" width="11" height="13" xoffset="-2" yoffset="5" xadvance="7" page="0" chnl="15" />
    <char id="52" x="13" y="138" width="12" height="13" xoffset="-3" yoffset="5" xadvance="7" page="0" chnl="15" />
    <char id="53" x="107" y="50" width="11" height="14" xoffset="-2" yoffset="4" xadvance="7" page="0" chnl="15" />
    <char id="54" x="153" y="134" width="11" height="13" xoffset="-2" yoffset="5" xadvance="7" page="0" chnl="15" />
    <char id="55" x="26" y="138" width="12" height="13" xoffset="-3" yoffset="5" xadvance="6" page="0" chnl="15" />
    <char id="56" x="126" y="121" width="12" height="13" xoffset="-2" yoffset="5" xadvance="7" page="0" chnl="15" />
    <char id="57" x="141" y="135" width="11" height="13" xoffset="-2" yoffset="5" xadvance="7" page="0" chnl="15" />
    <char id="58" x="181" y="148" width="7" height="11" xoffset="-2" yoffset="7" xadvance="3" page="0" chnl="15" />
    <char id="59" x="180" y="106" width="8" height="13" xoffset="-2" yoffset="7" xadvance="3" page="0" chnl="15" />
    <char id="60" x="81" y="188" width="11" height="10" xoffset="-2" yoffset="7" xadvance="7" page="0" chnl="15" />
    <char id="61" x="155" y="185" width="11" height="7" xoffset="-2" yoffset="9" xadvance="8" page="0" chnl="15" />
    <char id="62" x="105" y="187" width="11" height="10" xoffset="-2" yoffset="7" xadvance="7" page="0" chnl="15" />
    <char id="63" x="117" y="135" width="11" height="13" xoffset="-2" yoffset="5" xadvance="7" page="0" chnl="15" />
    <char id="64" x="107" y="35" width="14" height="14" xoffset="-2" yoffset="5" xadvance="10" page="0" chnl="15" />
    <char id="65" x="75" y="95" width="14" height="13" xoffset="-3" yoffset="5" xadvance="9" page="0" chnl="15" />
    <char id="66" x="98" y="123" width="13" height="13" xoffset="-2" yoffset="5" xadvance="9" page="0" chnl="15" />
    <char id="67" x="45" y="96" width="14" height="13" xoffset="-2" yoffset="5" xadvance="9" page="0" chnl="15" />
    <char id="68" x="15" y="96" width="14" height="13" xoffset="-2" yoffset="5" xadvance="10" page="0" chnl="15" />
    <char id="69" x="39" y="138" width="12" height="13" xoffset="-2" yoffset="5" xadvance="8" page="0" chnl="15" />
    <char id="70" x="52" y="138" width="12" height="13" xoffset="-2" yoffset="5" xadvance="7" page="0" chnl="15" />
    <char id="71" x="0" y="96" width="14" height="13" xoffset="-2" yoffset="5" xadvance="10" page="0" chnl="15" />
    <char id="72" x="150" y="106" width="14" height="13" xoffset="-2" yoffset="5" xadvance="10" page="0" chnl="15" />
    <char id="73" x="179" y="78" width="9" height="13" xoffset="-2" yoffset="5" xadvance="5" page="0" chnl="15" />
    <char id="74" x="178" y="120" width="11" height="13" xoffset="-3" yoffset="5" xadvance="6" page="0" chnl="15" />
    <char id="75" x="105" y="107" width="14" height="13" xoffset="-2" yoffset="5" xadvance="9" page="0" chnl="15" />
    <char id="76" x="78" y="138" width="12" height="13" xoffset="-2" yoffset="5" xadvance="8" page="0" chnl="15" />
    <char id="77" x="116" y="65" width="17" height="13" xoffset="-2" yoffset="5" xadvance="13" page="0" chnl="15" />
    <char id="78" x="60" y="110" width="14" height="13" xoffset="-2" yoffset="5" xadvance="10" page="0" chnl="15" />
    <char id="79" x="45" y="110" width="14" height="13" xoffset="-2" yoffset="5" xadvance="10" page="0" chnl="15" />
    <char id="80" x="56" y="124" width="13" height="13" xoffset="-2" yoffset="5" xadvance="8" page="0" chnl="15" />
    <char id="81" x="92" y="18" width="15" height="16" xoffset="-2" yoffset="5" xadvance="10" page="0" chnl="15" />
    <char id="82" x="0" y="110" width="14" height="13" xoffset="-2" yoffset="5" xadvance="9" page="0" chnl="15" />
    <char id="83" x="91" y="137" width="12" height="13" xoffset="-2" yoffset="5" xadvance="8" page="0" chnl="15" />
    <char id="84" x="150" y="92" width="14" height="13" xoffset="-3" yoffset="5" xadvance="8" page="0" chnl="15" />
    <char id="85" x="15" y="110" width="14" height="13" xoffset="-2" yoffset="5" xadvance="10" page="0" chnl="15" />
    <char id="86" x="131" y="79" width="15" height="13" xoffset="-3" yoffset="5" xadvance="9" page="0" chnl="15" />
    <char id="87" x="40" y="68" width="19" height="13" xoffset="-3" yoffset="5" xadvance="13" page="0" chnl="15" />
    <char id="88" x="99" y="79" width="15" height="13" xoffset="-3" yoffset="5" xadvance="9" page="0" chnl="15" />
    <char id="89" x="135" y="107" width="14" height="13" xoffset="-3" yoffset="5" xadvance="9" page="0" chnl="15" />
    <char id="90" x="104" y="137" width="12" height="13" xoffset="-2" yoffset="5" xadvance="8" page="0" chnl="15" />
    <char id="91" x="44" y="18" width="10" height="17" xoffset="-2" yoffset="4" xadvance="5" page="0" chnl="15" />
    <char id="92" x="91" y="0" width="14" height="17" xoffset="-2" yoffset="4" xadvance="9" page="0" chnl="15" />
    <char id="93" x="33" y="18" width="10" height="17" xoffset="-3" yoffset="4" xadvance="5" page="0" chnl="15" />
    <char id="94" x="129" y="187" width="15" height="8" xoffset="-2" yoffset="5" xadvance="11" page="0" chnl="15" />
    <char id="95" x="25" y="202" width="13" height="5" xoffset="-1" yoffset="15" xadvance="11" page="0" chnl="15" />
    <char id="96" x="0" y="202" width="8" height="7" xoffset="-2" yoffset="3" xadvance="4" page="0" chnl="15" />
    <char id="97" x="36" y="190" width="11" height="11" xoffset="-2" yoffset="7" xadvance="7" page="0" chnl="15" />
    <char id="98" x="137" y="34" width="13" height="14" xoffset="-3" yoffset="4" xadvance="7" page="0" chnl="15" />
    <char id="99" x="24" y="190" width="11" height="11" xoffset="-2" yoffset="7" xadvance="7" page="0" chnl="15" />
    <char id="100" x="94" y="50" width="12" height="14" xoffset="-2" yoffset="4" xadvance="8" page="0" chnl="15" />
    <char id="101" x="12" y="190" width="11" height="11" xoffset="-2" yoffset="7" xadvance="7" page="0" chnl="15" />
    <char id="102" x="179" y="34" width="10" height="14" xoffset="-2" yoffset="4" xadvance="5" page="0" chnl="15" />
    <char id="103" x="42" y="36" width="12" height="15" xoffset="-2" yoffset="6" xadvance="7" page="0" chnl="15" />
    <char id="104" x="122" y="34" width="14" height="14" xoffset="-3" yoffset="4" xadvance="8" page="0" chnl="15" />
    <char id="105" x="161" y="49" width="9" height="14" xoffset="-2" yoffset="4" xadvance="4" page="0" chnl="15" />
    <char id="106" x="22" y="18" width="10" height="17" xoffset="-4" yoffset="4" xadvance="4" page="0" chnl="15" />
    <char id="107" x="14" y="53" width="13" height="14" xoffset="-3" yoffset="4" xadvance="8" page="0" chnl="15" />
    <char id="108" x="141" y="49" width="9" height="14" xoffset="-2" yoffset="4" xadvance="4" page="0" chnl="15" />
    <char id="109" x="131" y="149" width="16" height="11" xoffset="-2" yoffset="7" xadvance="12" page="0" chnl="15" />
    <char id="110" x="59" y="164" width="13" height="11" xoffset="-2" yoffset="7" xadvance="8" page="0" chnl="15" />
    <char id="111" x="169" y="160" width="12" height="11" xoffset="-2" yoffset="7" xadvance="7" page="0" chnl="15" />
    <char id="112" x="68" y="52" width="12" height="14" xoffset="-2" yoffset="7" xadvance="8" page="0" chnl="15" />
    <char id="113" x="42" y="52" width="12" height="14" xoffset="-2" yoffset="7" xadvance="7" page="0" chnl="15" />
    <char id="114" x="91" y="176" width="11" height="11" xoffset="-2" yoffset="7" xadvance="6" page="0" chnl="15" />
    <char id="115" x="115" y="175" width="11" height="11" xoffset="-2" yoffset="7" xadvance="6" page="0" chnl="15" />
    <char id="116" x="129" y="135" width="11" height="13" xoffset="-3" yoffset="5" xadvance="5" page="0" chnl="15" />
    <char id="117" x="101" y="163" width="13" height="11" xoffset="-3" yoffset="7" xadvance="8" page="0" chnl="15" />
    <char id="118" x="87" y="164" width="13" height="11" xoffset="-3" yoffset="7" xadvance="7" page="0" chnl="15" />
    <char id="119" x="148" y="149" width="16" height="11" xoffset="-3" yoffset="7" xadvance="11" page="0" chnl="15" />
    <char id="120" x="156" y="161" width="12" height="11" xoffset="-2" yoffset="7" xadvance="7" page="0" chnl="15" />
    <char id="121" x="151" y="34" width="13" height="14" xoffset="-3" yoffset="7" xadvance="7" page="0" chnl="15" />
    <char id="122" x="103" y="175" width="11" height="11" xoffset="-2" yoffset="7" xadvance="7" page="0" chnl="15" />
    <char id="123" x="0" y="19" width="10" height="17" xoffset="-3" yoffset="4" xadvance="5" page="0" chnl="15" />
    <char id="124" x="84" y="18" width="7" height="17" xoffset="-2" yoffset="4" xadvance="3" page="0" chnl="15" />
    <char id="125" x="175" y="0" width="11" height="17" xoffset="-3" yoffset="4" xadvance="5" page="0" chnl="15" />
    <char id="126" x="167" y="185" width="11" height="7" xoffset="-2" yoffset="8" xadvance="7" page="0" chnl="15" />
    <char id="1024" x="0" y="0" width="12" height="18" xoffset="-2" yoffset="0" xadvance="8" page="0" chnl="15" />
    <char id="1025" x="108" y="18" width="12" height="16" xoffset="-2" yoffset="2" xadvance="8" page="0" chnl="15" />
    <char id="1026" x="170" y="64" width="16" height="13" xoffset="-3" yoffset="5" xadvance="11" page="0" chnl="15" />
    <char id="1027" x="162" y="0" width="12" height="17" xoffset="-2" yoffset="1" xadvance="7" page="0" chnl="15" />
    <char id="1028" x="30" y="110" width="14" height="13" xoffset="-2" yoffset="5" xadvance="9" page="0" chnl="15" />
    <char id="1029" x="139" y="121" width="12" height="13" xoffset="-2" yoffset="5" xadvance="7" page="0" chnl="15" />
    <char id="1030" x="180" y="92" width="9" height="13" xoffset="-2" yoffset="5" xadvance="4" page="0" chnl="15" />
    <char id="1031" x="55" y="18" width="9" height="17" xoffset="-2" yoffset="1" xadvance="4" page="0" chnl="15" />
    <char id="1032" x="12" y="152" width="11" height="13" xoffset="-3" yoffset="5" xadvance="5" page="0" chnl="15" />
    <char id="1033" x="60" y="67" width="18" height="13" xoffset="-2" yoffset="5" xadvance="14" page="0" chnl="15" />
    <char id="1034" x="171" y="49" width="18" height="13" xoffset="-2" yoffset="5" xadvance="14" page="0" chnl="15" />
    <char id="1035" x="98" y="65" width="17" height="13" xoffset="-3" yoffset="5" xadvance="11" page="0" chnl="15" />
    <char id="1036" x="76" y="0" width="14" height="17" xoffset="-2" yoffset="1" xadvance="9" page="0" chnl="15" />
    <char id="1037" x="13" y="0" width="15" height="17" xoffset="-2" yoffset="1" xadvance="10" page="0" chnl="15" />
    <char id="1038" x="106" y="0" width="14" height="17" xoffset="-3" yoffset="1" xadvance="8" page="0" chnl="15" />
    <char id="1039" x="173" y="18" width="14" height="15" xoffset="-2" yoffset="5" xadvance="10" page="0" chnl="15" />
    <char id="1040" x="60" y="96" width="14" height="13" xoffset="-3" yoffset="5" xadvance="8" page="0" chnl="15" />
    <char id="1041" x="28" y="124" width="13" height="13" xoffset="-2" yoffset="5" xadvance="9" page="0" chnl="15" />
    <char id="1042" x="84" y="123" width="13" height="13" xoffset="-2" yoffset="5" xadvance="8" page="0" chnl="15" />
    <char id="1043" x="152" y="120" width="12" height="13" xoffset="-2" yoffset="5" xadvance="7" page="0" chnl="15" />
    <char id="1044" x="0" y="37" width="14" height="15" xoffset="-2" yoffset="5" xadvance="10" page="0" chnl="15" />
    <char id="1045" x="165" y="120" width="12" height="13" xoffset="-2" yoffset="5" xadvance="8" page="0" chnl="15" />
    <char id="1046" x="0" y="68" width="19" height="13" xoffset="-3" yoffset="5" xadvance="14" page="0" chnl="15" />
    <char id="1047" x="14" y="124" width="13" height="13" xoffset="-1" yoffset="5" xadvance="10" page="0" chnl="15" />
    <char id="1048" x="51" y="82" width="15" height="13" xoffset="-2" yoffset="5" xadvance="10" page="0" chnl="15" />
    <char id="1049" x="45" y="0" width="15" height="17" xoffset="-2" yoffset="1" xadvance="11" page="0" chnl="15" />
    <char id="1050" x="165" y="92" width="14" height="13" xoffset="-2" yoffset="5" xadvance="9" page="0" chnl="15" />
    <char id="1051" x="83" y="81" width="15" height="13" xoffset="-3" yoffset="5" xadvance="10" page="0" chnl="15" />
    <char id="1052" x="134" y="64" width="17" height="13" xoffset="-2" yoffset="5" xadvance="12" page="0" chnl="15" />
    <char id="1053" x="67" y="81" width="15" height="13" xoffset="-2" yoffset="5" xadvance="10" page="0" chnl="15" />
    <char id="1054" x="120" y="107" width="14" height="13" xoffset="-2" yoffset="5" xadvance="10" page="0" chnl="15" />
    <char id="1055" x="90" y="95" width="14" height="13" xoffset="-2" yoffset="5" xadvance="11" page="0" chnl="15" />
    <char id="1056" x="42" y="124" width="13" height="13" xoffset="-2" yoffset="5" xadvance="8" page="0" chnl="15" />
    <char id="1057" x="120" y="93" width="14" height="13" xoffset="-2" yoffset="5" xadvance="9" page="0" chnl="15" />
    <char id="1058" x="135" y="93" width="14" height="13" xoffset="-3" yoffset="5" xadvance="8" page="0" chnl="15" />
    <char id="1059" x="30" y="96" width="14" height="13" xoffset="-3" yoffset="5" xadvance="9" page="0" chnl="15" />
    <char id="1060" x="140" y="18" width="16" height="15" xoffset="-2" yoffset="4" xadvance="12" page="0" chnl="15" />
    <char id="1061" x="115" y="79" width="15" height="13" xoffset="-2" yoffset="5" xadvance="10" page="0" chnl="15" />
    <char id="1062" x="157" y="18" width="15" height="15" xoffset="-2" yoffset="5" xadvance="11" page="0" chnl="15" />
    <char id="1063" x="105" y="93" width="14" height="13" xoffset="-2" yoffset="5" xadvance="11" page="0" chnl="15" />
    <char id="1064" x="79" y="67" width="18" height="13" xoffset="-2" yoffset="5" xadvance="14" page="0" chnl="15" />
    <char id="1065" x="121" y="18" width="18" height="15" xoffset="-2" yoffset="5" xadvance="14" page="0" chnl="15" />
    <char id="1066" x="147" y="78" width="15" height="13" xoffset="-3" yoffset="5" xadvance="11" page="0" chnl="15" />
    <char id="1067" x="152" y="64" width="17" height="13" xoffset="-2" yoffset="5" xadvance="13" page="0" chnl="15" />
    <char id="1068" x="112" y="121" width="13" height="13" xoffset="-2" yoffset="5" xadvance="9" page="0" chnl="15" />
    <char id="1069" x="75" y="109" width="14" height="13" xoffset="-2" yoffset="5" xadvance="10" page="0" chnl="15" />
    <char id="1070" x="20" y="68" width="19" height="13" xoffset="-2" yoffset="5" xadvance="15" page="0" chnl="15" />
    <char id="1071" x="90" y="109" width="14" height="13" xoffset="-2" yoffset="5" xadvance="10" page="0" chnl="15" />
    <char id="1072" x="127" y="175" width="11" height="11" xoffset="-2" yoffset="7" xadvance="7" page="0" chnl="15" />
    <char id="1073" x="81" y="52" width="12" height="14" xoffset="-2" yoffset="4" xadvance="8" page="0" chnl="15" />
    <char id="1074" x="31" y="166" width="13" height="11" xoffset="-2" yoffset="7" xadvance="9" page="0" chnl="15" />
    <char id="1075" x="139" y="175" width="11" height="11" xoffset="-2" yoffset="7" xadvance="6" page="0" chnl="15" />
    <char id="1076" x="70" y="124" width="13" height="13" xoffset="-2" yoffset="7" xadvance="9" page="0" chnl="15" />
    <char id="1077" x="151" y="173" width="11" height="11" xoffset="-2" yoffset="7" xadvance="7" page="0" chnl="15" />
    <char id="1078" x="44" y="152" width="17" height="11" xoffset="-3" yoffset="7" xadvance="11" page="0" chnl="15" />
    <char id="1079" x="48" y="190" width="11" height="11" xoffset="-1" yoffset="7" xadvance="8" page="0" chnl="15" />
    <char id="1080" x="129" y="163" width="13" height="11" xoffset="-2" yoffset="7" xadvance="9" page="0" chnl="15" />
    <char id="1081" x="0" y="53" width="13" height="14" xoffset="-2" yoffset="4" xadvance="9" page="0" chnl="15" />
    <char id="1082" x="78" y="176" width="12" height="11" xoffset="-2" yoffset="7" xadvance="8" page="0" chnl="15" />
    <char id="1083" x="115" y="163" width="13" height="11" xoffset="-2" yoffset="7" xadvance="9" page="0" chnl="15" />
    <char id="1084" x="0" y="166" width="15" height="11" xoffset="-2" yoffset="7" xadvance="11" page="0" chnl="15" />
    <char id="1085" x="45" y="164" width="13" height="11" xoffset="-2" yoffset="7" xadvance="9" page="0" chnl="15" />
    <char id="1086" x="143" y="161" width="12" height="11" xoffset="-2" yoffset="7" xadvance="8" page="0" chnl="15" />
    <char id="1087" x="73" y="164" width="13" height="11" xoffset="-2" yoffset="7" xadvance="8" page="0" chnl="15" />
    <char id="1088" x="55" y="52" width="12" height="14" xoffset="-2" yoffset="7" xadvance="8" page="0" chnl="15" />
    <char id="1089" x="163" y="173" width="11" height="11" xoffset="-2" yoffset="7" xadvance="7" page="0" chnl="15" />
    <char id="1090" x="52" y="176" width="12" height="11" xoffset="-2" yoffset="7" xadvance="8" page="0" chnl="15" />
    <char id="1091" x="165" y="34" width="13" height="14" xoffset="-3" yoffset="7" xadvance="7" page="0" chnl="15" />
    <char id="1092" x="29" y="0" width="15" height="17" xoffset="-2" yoffset="4" xadvance="11" page="0" chnl="15" />
    <char id="1093" x="26" y="178" width="12" height="11" xoffset="-2" yoffset="7" xadvance="7" page="0" chnl="15" />
    <char id="1094" x="0" y="124" width="13" height="13" xoffset="-2" yoffset="7" xadvance="9" page="0" chnl="15" />
    <char id="1095" x="39" y="178" width="12" height="11" xoffset="-2" yoffset="7" xadvance="8" page="0" chnl="15" />
    <char id="1096" x="97" y="151" width="16" height="11" xoffset="-2" yoffset="7" xadvance="12" page="0" chnl="15" />
    <char id="1097" x="0" y="82" width="16" height="13" xoffset="-2" yoffset="7" xadvance="12" page="0" chnl="15" />
    <char id="1098" x="16" y="166" width="14" height="11" xoffset="-3" yoffset="7" xadvance="9" page="0" chnl="15" />
    <char id="1099" x="165" y="148" width="15" height="11" xoffset="-2" yoffset="7" xadvance="11" page="0" chnl="15" />
    <char id="1100" x="65" y="176" width="12" height="11" xoffset="-2" yoffset="7" xadvance="8" page="0" chnl="15" />
    <char id="1101" x="0" y="178" width="12" height="11" xoffset="-2" yoffset="7" xadvance="8" page="0" chnl="15" />
    <char id="1102" x="80" y="152" width="16" height="11" xoffset="-2" yoffset="7" xadvance="12" page="0" chnl="15" />
    <char id="1103" x="13" y="178" width="12" height="11" xoffset="-2" yoffset="7" xadvance="8" page="0" chnl="15" />
    <char id="1104" x="80" y="36" width="11" height="15" xoffset="-2" yoffset="3" xadvance="7" page="0" chnl="15" />
    <char id="1105" x="119" y="50" width="11" height="14" xoffset="-2" yoffset="4" xadvance="7" page="0" chnl="15" />
    <char id="1106" x="135" y="0" width="13" height="17" xoffset="-3" yoffset="4" xadvance="8" page="0" chnl="15" />
    <char id="1107" x="68" y="36" width="11" height="15" xoffset="-2" yoffset="3" xadvance="6" page="0" chnl="15" />
    <char id="1108" x="0" y="190" width="11" height="11" xoffset="-2" yoffset="7" xadvance="7" page="0" chnl="15" />
    <char id="1109" x="175" y="172" width="11" height="11" xoffset="-2" yoffset="7" xadvance="6" page="0" chnl="15" />
    <char id="1110" x="131" y="49" width="9" height="14" xoffset="-2" yoffset="4" xadvance="4" page="0" chnl="15" />
    <char id="1111" x="151" y="49" width="9" height="14" xoffset="-2" yoffset="4" xadvance="4" page="0" chnl="15" />
    <char id="1112" x="11" y="19" width="10" height="17" xoffset="-4" yoffset="4" xadvance="3" page="0" chnl="15" />
    <char id="1113" x="62" y="152" width="17" height="11" xoffset="-3" yoffset="7" xadvance="12" page="0" chnl="15" />
    <char id="1114" x="114" y="151" width="16" height="11" xoffset="-2" yoffset="7" xadvance="12" page="0" chnl="15" />
    <char id="1115" x="92" y="35" width="14" height="14" xoffset="-3" yoffset="4" xadvance="8" page="0" chnl="15" />
    <char id="1116" x="29" y="36" width="12" height="15" xoffset="-2" yoffset="3" xadvance="7" page="0" chnl="15" />
    <char id="1117" x="15" y="37" width="13" height="15" xoffset="-2" yoffset="3" xadvance="8" page="0" chnl="15" />
    <char id="1118" x="121" y="0" width="13" height="17" xoffset="-3" yoffset="4" xadvance="7" page="0" chnl="15" />
    <char id="1119" x="65" y="138" width="12" height="13" xoffset="-2" yoffset="7" xadvance="8" page="0" chnl="15" />
    <char id="1168" x="55" y="36" width="12" height="15" xoffset="-2" yoffset="3" xadvance="7" page="0" chnl="15" />
    <char id="1169" x="32" y="152" width="11" height="12" xoffset="-2" yoffset="6" xadvance="6" page="0" chnl="15" />
    <char id="1200" x="163" y="78" width="15" height="13" xoffset="-3" yoffset="5" xadvance="9" page="0" chnl="15" />
    <char id="1201" x="28" y="53" width="13" height="14" xoffset="-3" yoffset="7" xadvance="7" page="0" chnl="15" />
    <char id="8226" x="145" y="187" width="9" height="8" xoffset="-2" yoffset="7" xadvance="5" page="0" chnl="15" />
    <char id="8249" x="60" y="188" width="10" height="11" xoffset="-3" yoffset="7" xadvance="5" page="0" chnl="15" />
    <char id="8250" x="71" y="188" width="9" height="11" xoffset="-2" yoffset="7" xadvance="5" page="0" chnl="15" />
  </chars>
  <kernings count="469">
    <kerning first="8250" second="89" amount="-1" />
    <kerning first="34" second="44" amount="-2" />
    <kerning first="34" second="46" amount="-2" />
    <kerning first="34" second="47" amount="-1" />
    <kerning first="34" second="52" amount="-1" />
    <kerning first="8250" second="87" amount="-1" />
    <kerning first="34" second="65" amount="-1" />
    <kerning first="8250" second="86" amount="-1" />
    <kerning first="8250" second="84" amount="-1" />
    <kerning first="8250" second="39" amount="-1" />
    <kerning first="8250" second="34" amount="-1" />
    <kerning first="34" second="100" amount="-1" />
    <kerning first="45" second="89" amount="-1" />
    <kerning first="45" second="88" amount="-1" />
    <kerning first="45" second="87" amount="-1" />
    <kerning first="34" second="113" amount="-1" />
    <kerning first="45" second="86" amount="-1" />
    <kerning first="45" second="84" amount="-1" />
    <kerning first="45" second="74" amount="-1" />
    <kerning first="45" second="65" amount="-1" />
    <kerning first="45" second="55" amount="-1" />
    <kerning first="124" second="106" amount="1" />
    <kerning first="123" second="106" amount="2" />
    <kerning first="123" second="98" amount="1" />
    <kerning first="122" second="93" amount="-1" />
    <kerning first="122" second="89" amount="-1" />
    <kerning first="122" second="87" amount="-1" />
    <kerning first="122" second="86" amount="-1" />
    <kerning first="121" second="93" amount="-1" />
    <kerning first="121" second="74" amount="-1" />
    <kerning first="121" second="65" amount="-1" />
    <kerning first="121" second="47" amount="-1" />
    <kerning first="121" second="46" amount="-1" />
    <kerning first="121" second="44" amount="-1" />
    <kerning first="120" second="93" amount="-1" />
    <kerning first="120" second="89" amount="-1" />
    <kerning first="120" second="87" amount="-1" />
    <kerning first="120" second="86" amount="-1" />
    <kerning first="119" second="93" amount="-1" />
    <kerning first="119" second="74" amount="-1" />
    <kerning first="119" second="65" amount="-1" />
    <kerning first="119" second="47" amount="-1" />
    <kerning first="119" second="46" amount="-1" />
    <kerning first="119" second="44" amount="-1" />
    <kerning first="118" second="93" amount="-1" />
    <kerning first="118" second="74" amount="-1" />
    <kerning first="118" second="65" amount="-1" />
    <kerning first="118" second="47" amount="-1" />
    <kerning first="118" second="46" amount="-1" />
    <kerning first="118" second="44" amount="-1" />
    <kerning first="34" second="8249" amount="-1" />
    <kerning first="38" second="34" amount="-1" />
    <kerning first="38" second="39" amount="-1" />
    <kerning first="38" second="65" amount="1" />
    <kerning first="38" second="74" amount="1" />
    <kerning first="117" second="93" amount="-1" />
    <kerning first="117" second="92" amount="-1" />
    <kerning first="117" second="89" amount="-1" />
    <kerning first="38" second="86" amount="-1" />
    <kerning first="38" second="87" amount="-1" />
    <kerning first="117" second="87" amount="-1" />
    <kerning first="38" second="89" amount="-1" />
    <kerning first="117" second="86" amount="-1" />
    <kerning first="116" second="93" amount="-1" />
    <kerning first="116" second="89" amount="-1" />
    <kerning first="116" second="87" amount="-1" />
    <kerning first="116" second="86" amount="-1" />
    <kerning first="115" second="93" amount="-1" />
    <kerning first="115" second="89" amount="-1" />
    <kerning first="115" second="87" amount="-1" />
    <kerning first="115" second="86" amount="-1" />
    <kerning first="115" second="47" amount="-1" />
    <kerning first="114" second="93" amount="-1" />
    <kerning first="114" second="89" amount="-1" />
    <kerning first="114" second="88" amount="-1" />
    <kerning first="114" second="87" amount="-1" />
    <kerning first="114" second="86" amount="-1" />
    <kerning first="114" second="74" amount="-1" />
    <kerning first="114" second="65" amount="-1" />
    <kerning first="114" second="47" amount="-1" />
    <kerning first="114" second="46" amount="-1" />
    <kerning first="114" second="44" amount="-1" />
    <kerning first="113" second="106" amount="2" />
    <kerning first="113" second="89" amount="-1" />
    <kerning first="113" second="87" amount="-1" />
    <kerning first="113" second="86" amount="-1" />
    <kerning first="112" second="93" amount="-1" />
    <kerning first="112" second="92" amount="-1" />
    <kerning first="112" second="89" amount="-1" />
    <kerning first="112" second="88" amount="-1" />
    <kerning first="112" second="87" amount="-1" />
    <kerning first="112" second="86" amount="-1" />
    <kerning first="112" second="84" amount="-1" />
    <kerning first="112" second="47" amount="-1" />
    <kerning first="111" second="93" amount="-1" />
    <kerning first="111" second="92" amount="-1" />
    <kerning first="111" second="89" amount="-1" />
    <kerning first="111" second="88" amount="-1" />
    <kerning first="111" second="87" amount="-1" />
    <kerning first="111" second="86" amount="-1" />
    <kerning first="111" second="84" amount="-1" />
    <kerning first="111" second="47" amount="-1" />
    <kerning first="110" second="93" amount="-1" />
    <kerning first="110" second="92" amount="-1" />
    <kerning first="110" second="89" amount="-1" />
    <kerning first="110" second="87" amount="-1" />
    <kerning first="110" second="86" amount="-1" />
    <kerning first="110" second="84" amount="-1" />
    <kerning first="109" second="93" amount="-1" />
    <kerning first="109" second="92" amount="-1" />
    <kerning first="39" second="44" amount="-1" />
    <kerning first="39" second="46" amount="-1" />
    <kerning first="39" second="47" amount="-1" />
    <kerning first="39" second="52" amount="-1" />
    <kerning first="109" second="89" amount="-1" />
    <kerning first="39" second="65" amount="-1" />
    <kerning first="109" second="87" amount="-1" />
    <kerning first="109" second="86" amount="-1" />
    <kerning first="109" second="84" amount="-1" />
    <kerning first="107" second="93" amount="-1" />
    <kerning first="39" second="100" amount="-1" />
    <kerning first="107" second="89" amount="-1" />
    <kerning first="107" second="87" amount="-1" />
    <kerning first="107" second="86" amount="-1" />
    <kerning first="39" second="113" amount="-1" />
    <kerning first="104" second="93" amount="-1" />
    <kerning first="104" second="92" amount="-1" />
    <kerning first="104" second="89" amount="-1" />
    <kerning first="104" second="87" amount="-1" />
    <kerning first="104" second="86" amount="-1" />
    <kerning first="104" second="84" amount="-1" />
    <kerning first="104" second="55" amount="-1" />
    <kerning first="103" second="106" amount="1" />
    <kerning first="103" second="84" amount="1" />
    <kerning first="103" second="42" amount="1" />
    <kerning first="102" second="125" amount="1" />
    <kerning first="102" second="124" amount="1" />
    <kerning first="102" second="108" amount="1" />
    <kerning first="102" second="107" amount="1" />
    <kerning first="102" second="104" amount="1" />
    <kerning first="102" second="98" amount="1" />
    <kerning first="102" second="93" amount="1" />
    <kerning first="102" second="92" amount="1" />
    <kerning first="102" second="90" amount="1" />
    <kerning first="102" second="89" amount="1" />
    <kerning first="102" second="88" amount="1" />
    <kerning first="102" second="87" amount="1" />
    <kerning first="102" second="86" amount="1" />
    <kerning first="102" second="85" amount="1" />
    <kerning first="102" second="84" amount="1" />
    <kerning first="102" second="82" amount="1" />
    <kerning first="102" second="80" amount="1" />
    <kerning first="102" second="78" amount="1" />
    <kerning first="102" second="77" amount="1" />
    <kerning first="102" second="76" amount="1" />
    <kerning first="102" second="75" amount="1" />
    <kerning first="102" second="73" amount="1" />
    <kerning first="102" second="72" amount="1" />
    <kerning first="102" second="70" amount="1" />
    <kerning first="39" second="8249" amount="-1" />
    <kerning first="102" second="69" amount="1" />
    <kerning first="102" second="68" amount="1" />
    <kerning first="102" second="66" amount="1" />
    <kerning first="102" second="41" amount="1" />
    <kerning first="102" second="39" amount="1" />
    <kerning first="102" second="34" amount="1" />
    <kerning first="102" second="33" amount="1" />
    <kerning first="101" second="93" amount="-1" />
    <kerning first="101" second="92" amount="-1" />
    <kerning first="101" second="89" amount="-1" />
    <kerning first="101" second="87" amount="-1" />
    <kerning first="101" second="86" amount="-1" />
    <kerning first="101" second="84" amount="-1" />
    <kerning first="101" second="47" amount="-1" />
    <kerning first="99" second="93" amount="-1" />
    <kerning first="99" second="89" amount="-1" />
    <kerning first="99" second="87" amount="-1" />
    <kerning first="99" second="86" amount="-1" />
    <kerning first="98" second="93" amount="-1" />
    <kerning first="98" second="92" amount="-1" />
    <kerning first="98" second="89" amount="-1" />
    <kerning first="98" second="88" amount="-1" />
    <kerning first="98" second="87" amount="-1" />
    <kerning first="98" second="86" amount="-1" />
    <kerning first="98" second="84" amount="-1" />
    <kerning first="98" second="47" amount="-1" />
    <kerning first="40" second="106" amount="1" />
    <kerning first="97" second="93" amount="-1" />
    <kerning first="97" second="92" amount="-1" />
    <kerning first="97" second="89" amount="-1" />
    <kerning first="97" second="87" amount="-1" />
    <kerning first="97" second="86" amount="-1" />
    <kerning first="97" second="84" amount="-1" />
    <kerning first="92" second="119" amount="-1" />
    <kerning first="92" second="118" amount="-1" />
    <kerning first="92" second="117" amount="-1" />
    <kerning first="92" second="116" amount="-1" />
    <kerning first="92" second="113" amount="-1" />
    <kerning first="92" second="111" amount="-1" />
    <kerning first="92" second="106" amount="1" />
    <kerning first="92" second="101" amount="-1" />
    <kerning first="92" second="100" amount="-1" />
    <kerning first="92" second="99" amount="-1" />
    <kerning first="92" second="89" amount="-1" />
    <kerning first="92" second="87" amount="-1" />
    <kerning first="92" second="86" amount="-1" />
    <kerning first="92" second="85" amount="-1" />
    <kerning first="92" second="84" amount="-1" />
    <kerning first="92" second="81" amount="-1" />
    <kerning first="92" second="79" amount="-1" />
    <kerning first="92" second="71" amount="-1" />
    <kerning first="92" second="67" amount="-1" />
    <kerning first="92" second="57" amount="-1" />
    <kerning first="92" second="56" amount="-1" />
    <kerning first="92" second="55" amount="-1" />
    <kerning first="92" second="54" amount="-1" />
    <kerning first="92" second="53" amount="-1" />
    <kerning first="92" second="52" amount="-1" />
    <kerning first="92" second="49" amount="-1" />
    <kerning first="92" second="48" amount="-1" />
    <kerning first="92" second="39" amount="-1" />
    <kerning first="92" second="34" amount="-1" />
    <kerning first="91" second="122" amount="-1" />
    <kerning first="91" second="120" amount="-1" />
    <kerning first="91" second="119" amount="-1" />
    <kerning first="91" second="118" amount="-1" />
    <kerning first="91" second="117" amount="-1" />
    <kerning first="91" second="116" amount="-1" />
    <kerning first="91" second="115" amount="-1" />
    <kerning first="91" second="114" amount="-1" />
    <kerning first="91" second="113" amount="-1" />
    <kerning first="91" second="111" amount="-1" />
    <kerning first="91" second="110" amount="-1" />
    <kerning first="91" second="109" amount="-1" />
    <kerning first="91" second="106" amount="2" />
    <kerning first="91" second="101" amount="-1" />
    <kerning first="91" second="100" amount="-1" />
    <kerning first="91" second="99" amount="-1" />
    <kerning first="91" second="98" amount="1" />
    <kerning first="91" second="97" amount="-1" />
    <kerning first="91" second="89" amount="1" />
    <kerning first="91" second="81" amount="-1" />
    <kerning first="91" second="79" amount="-1" />
    <kerning first="91" second="71" amount="-1" />
    <kerning first="91" second="67" amount="-1" />
    <kerning first="91" second="65" amount="-1" />
    <kerning first="91" second="54" amount="-1" />
    <kerning first="91" second="52" amount="-1" />
    <kerning first="91" second="48" amount="-1" />
    <kerning first="89" second="8249" amount="-1" />
    <kerning first="89" second="45" amount="-1" />
    <kerning first="89" second="122" amount="-1" />
    <kerning first="89" second="121" amount="-1" />
    <kerning first="89" second="120" amount="-1" />
    <kerning first="89" second="119" amount="-1" />
    <kerning first="89" second="118" amount="-1" />
    <kerning first="89" second="117" amount="-1" />
    <kerning first="89" second="116" amount="-1" />
    <kerning first="89" second="115" amount="-1" />
    <kerning first="89" second="114" amount="-1" />
    <kerning first="42" second="65" amount="-1" />
    <kerning first="89" second="113" amount="-1" />
    <kerning first="89" second="112" amount="-1" />
    <kerning first="89" second="111" amount="-1" />
    <kerning first="89" second="110" amount="-1" />
    <kerning first="89" second="109" amount="-1" />
    <kerning first="89" second="103" amount="-1" />
    <kerning first="42" second="74" amount="-1" />
    <kerning first="89" second="101" amount="-1" />
    <kerning first="89" second="100" amount="-1" />
    <kerning first="89" second="99" amount="-1" />
    <kerning first="89" second="98" amount="1" />
    <kerning first="89" second="97" amount="-1" />
    <kerning first="89" second="93" amount="1" />
    <kerning first="89" second="65" amount="-1" />
    <kerning first="89" second="64" amount="-1" />
    <kerning first="89" second="52" amount="-1" />
    <kerning first="89" second="47" amount="-1" />
    <kerning first="89" second="46" amount="-1" />
    <kerning first="89" second="45" amount="-1" />
    <kerning first="89" second="44" amount="-1" />
    <kerning first="88" second="45" amount="-1" />
    <kerning first="88" second="121" amount="-1" />
    <kerning first="88" second="119" amount="-1" />
    <kerning first="88" second="118" amount="-1" />
    <kerning first="88" second="45" amount="-1" />
    <kerning first="87" second="8249" amount="-1" />
    <kerning first="87" second="45" amount="-1" />
    <kerning first="87" second="125" amount="1" />
    <kerning first="87" second="122" amount="-1" />
    <kerning first="87" second="120" amount="-1" />
    <kerning first="87" second="117" amount="-1" />
    <kerning first="87" second="115" amount="-1" />
    <kerning first="87" second="114" amount="-1" />
    <kerning first="87" second="113" amount="-1" />
    <kerning first="87" second="112" amount="-1" />
    <kerning first="87" second="111" amount="-1" />
    <kerning first="87" second="110" amount="-1" />
    <kerning first="87" second="109" amount="-1" />
    <kerning first="87" second="103" amount="-1" />
    <kerning first="87" second="101" amount="-1" />
    <kerning first="87" second="100" amount="-1" />
    <kerning first="87" second="99" amount="-1" />
    <kerning first="87" second="98" amount="1" />
    <kerning first="87" second="97" amount="-1" />
    <kerning first="87" second="93" amount="1" />
    <kerning first="87" second="65" amount="-1" />
    <kerning first="87" second="64" amount="-1" />
    <kerning first="87" second="52" amount="-1" />
    <kerning first="87" second="47" amount="-1" />
    <kerning first="87" second="46" amount="-1" />
    <kerning first="87" second="45" amount="-1" />
    <kerning first="87" second="44" amount="-1" />
    <kerning first="86" second="8249" amount="-1" />
    <kerning first="86" second="45" amount="-1" />
    <kerning first="86" second="125" amount="1" />
    <kerning first="86" second="122" amount="-1" />
    <kerning first="86" second="121" amount="-1" />
    <kerning first="86" second="120" amount="-1" />
    <kerning first="86" second="119" amount="-1" />
    <kerning first="86" second="118" amount="-1" />
    <kerning first="86" second="117" amount="-1" />
    <kerning first="86" second="115" amount="-1" />
    <kerning first="86" second="114" amount="-1" />
    <kerning first="86" second="113" amount="-1" />
    <kerning first="86" second="112" amount="-1" />
    <kerning first="86" second="111" amount="-1" />
    <kerning first="86" second="110" amount="-1" />
    <kerning first="86" second="109" amount="-1" />
    <kerning first="86" second="103" amount="-1" />
    <kerning first="44" second="34" amount="-2" />
    <kerning first="44" second="39" amount="-1" />
    <kerning first="86" second="101" amount="-1" />
    <kerning first="86" second="100" amount="-1" />
    <kerning first="86" second="99" amount="-1" />
    <kerning first="86" second="98" amount="1" />
    <kerning first="86" second="97" amount="-1" />
    <kerning first="86" second="93" amount="1" />
    <kerning first="44" second="84" amount="-1" />
    <kerning first="86" second="65" amount="-1" />
    <kerning first="44" second="86" amount="-1" />
    <kerning first="44" second="87" amount="-1" />
    <kerning first="44" second="89" amount="-1" />
    <kerning first="86" second="64" amount="-1" />
    <kerning first="86" second="59" amount="-1" />
    <kerning first="86" second="52" amount="-1" />
    <kerning first="86" second="47" amount="-1" />
    <kerning first="44" second="118" amount="-1" />
    <kerning first="86" second="46" amount="-1" />
    <kerning first="44" second="121" amount="-1" />
    <kerning first="86" second="45" amount="-1" />
    <kerning first="86" second="44" amount="-1" />
    <kerning first="85" second="65" amount="-1" />
    <kerning first="85" second="47" amount="-1" />
    <kerning first="84" second="8249" amount="-1" />
    <kerning first="84" second="45" amount="-1" />
    <kerning first="84" second="113" amount="-1" />
    <kerning first="84" second="111" amount="-1" />
    <kerning first="84" second="103" amount="-1" />
    <kerning first="84" second="101" amount="-1" />
    <kerning first="84" second="100" amount="-1" />
    <kerning first="84" second="99" amount="-1" />
    <kerning first="84" second="65" amount="-1" />
    <kerning first="84" second="47" amount="-1" />
    <kerning first="84" second="46" amount="-1" />
    <kerning first="84" second="45" amount="-1" />
    <kerning first="84" second="44" amount="-1" />
    <kerning first="83" second="47" amount="-1" />
    <kerning first="82" second="93" amount="-1" />
    <kerning first="81" second="125" amount="1" />
    <kerning first="81" second="106" amount="2" />
    <kerning first="81" second="93" amount="1" />
    <kerning first="81" second="47" amount="1" />
    <kerning first="81" second="41" amount="1" />
    <kerning first="80" second="74" amount="-1" />
    <kerning first="80" second="65" amount="-1" />
    <kerning first="80" second="47" amount="-1" />
    <kerning first="45" second="55" amount="-1" />
    <kerning first="80" second="46" amount="-1" />
    <kerning first="45" second="65" amount="-1" />
    <kerning first="80" second="44" amount="-1" />
    <kerning first="79" second="93" amount="-1" />
    <kerning first="79" second="47" amount="-1" />
    <kerning first="78" second="47" amount="-1" />
    <kerning first="76" second="121" amount="-1" />
    <kerning first="76" second="118" amount="-1" />
    <kerning first="45" second="74" amount="-1" />
    <kerning first="76" second="93" amount="-1" />
    <kerning first="76" second="92" amount="-1" />
    <kerning first="76" second="89" amount="-1" />
    <kerning first="76" second="87" amount="-1" />
    <kerning first="76" second="86" amount="-1" />
    <kerning first="76" second="84" amount="-1" />
    <kerning first="76" second="42" amount="-1" />
    <kerning first="45" second="84" amount="-1" />
    <kerning first="76" second="39" amount="-1" />
    <kerning first="45" second="86" amount="-1" />
    <kerning first="45" second="87" amount="-1" />
    <kerning first="45" second="88" amount="-1" />
    <kerning first="45" second="89" amount="-1" />
    <kerning first="76" second="34" amount="-1" />
    <kerning first="75" second="45" amount="-1" />
    <kerning first="75" second="121" amount="-1" />
    <kerning first="75" second="119" amount="-1" />
    <kerning first="75" second="118" amount="-1" />
    <kerning first="75" second="81" amount="-1" />
    <kerning first="75" second="79" amount="-1" />
    <kerning first="75" second="71" amount="-1" />
    <kerning first="75" second="67" amount="-1" />
    <kerning first="75" second="45" amount="-1" />
    <kerning first="74" second="47" amount="-1" />
    <kerning first="71" second="47" amount="-1" />
    <kerning first="70" second="113" amount="-1" />
    <kerning first="70" second="111" amount="-1" />
    <kerning first="70" second="103" amount="-1" />
    <kerning first="70" second="101" amount="-1" />
    <kerning first="70" second="100" amount="-1" />
    <kerning first="70" second="99" amount="-1" />
    <kerning first="70" second="97" amount="-1" />
    <kerning first="70" second="65" amount="-1" />
    <kerning first="70" second="47" amount="-1" />
    <kerning first="70" second="46" amount="-1" />
    <kerning first="70" second="44" amount="-1" />
    <kerning first="68" second="93" amount="-1" />
    <kerning first="68" second="47" amount="-1" />
    <kerning first="66" second="93" amount="-1" />
    <kerning first="66" second="47" amount="-1" />
    <kerning first="65" second="121" amount="-1" />
    <kerning first="65" second="118" amount="-1" />
    <kerning first="65" second="93" amount="-1" />
    <kerning first="65" second="92" amount="-1" />
    <kerning first="65" second="89" amount="-1" />
    <kerning first="65" second="87" amount="-1" />
    <kerning first="65" second="86" amount="-1" />
    <kerning first="65" second="85" amount="-1" />
    <kerning first="65" second="84" amount="-1" />
    <kerning first="65" second="42" amount="-1" />
    <kerning first="65" second="39" amount="-1" />
    <kerning first="65" second="34" amount="-1" />
    <kerning first="57" second="47" amount="-1" />
    <kerning first="46" second="34" amount="-2" />
    <kerning first="46" second="39" amount="-1" />
    <kerning first="56" second="47" amount="-1" />
    <kerning first="55" second="65" amount="-1" />
    <kerning first="55" second="47" amount="-1" />
    <kerning first="55" second="46" amount="-1" />
    <kerning first="55" second="44" amount="-1" />
    <kerning first="54" second="47" amount="-1" />
    <kerning first="46" second="84" amount="-1" />
    <kerning first="53" second="47" amount="-1" />
    <kerning first="46" second="86" amount="-1" />
    <kerning first="46" second="87" amount="-1" />
    <kerning first="46" second="89" amount="-1" />
    <kerning first="51" second="47" amount="-1" />
    <kerning first="48" second="93" amount="-1" />
    <kerning first="48" second="47" amount="-1" />
    <kerning first="47" second="115" amount="-1" />
    <kerning first="46" second="118" amount="-1" />
    <kerning first="47" second="113" amount="-1" />
    <kerning first="46" second="121" amount="-1" />
    <kerning first="47" second="111" amount="-1" />
    <kerning first="47" second="103" amount="-1" />
    <kerning first="47" second="101" amount="-1" />
    <kerning first="47" second="100" amount="-1" />
    <kerning first="47" second="99" amount="-1" />
    <kerning first="47" second="97" amount="-1" />
    <kerning first="47" second="65" amount="-1" />
    <kerning first="47" second="52" amount="-1" />
    <kerning first="47" second="47" amount="-4" />
  </kernings>
</font>
